<?xml version="1.0" encoding="utf-8"?>
<!-- Generator: Adobe Illustrator 25.2.1, SVG Export Plug-In . SVG Version: 6.00 Build 0)  -->
<svg version="1.1" id="Capa_1" xmlns="http://www.w3.org/2000/svg" xmlns:xlink="http://www.w3.org/1999/xlink" x="0px" y="0px"
	 viewBox="0 0 20.5 21.3" style="enable-background:new 0 0 20.5 21.3;" xml:space="preserve">
<style type="text/css">
	.st0{fill:#FFFFFF;}
</style>
<g>
	<g>
		<g>
			<g>
				<path class="st0" d="M6.1,16.8c-1.1,0-2,0.9-2,2c0,1.1,0.9,2,2,2s2-0.9,2-2C8.2,17.7,7.3,16.8,6.1,16.8z"/>
				<path class="st0" d="M7.3,11.7h7.6c0.8,0,1.4-0.4,1.8-1.1L20.3,4c0.1-0.1,0.1-0.3,0.1-0.5c0-0.6-0.5-1-1-1H4.3l-1-2H0v2h2
					l3.7,7.8l-1.4,2.5c-0.2,0.3-0.3,0.6-0.3,1c0,1.1,0.9,2,2,2h12.3v-2H6.6c-0.1,0-0.3-0.1-0.3-0.3c0,0,0-0.1,0-0.1L7.3,11.7z"/>
				<path class="st0" d="M16.4,16.8c-1.1,0-2,0.9-2,2c0,1.1,0.9,2,2,2c1.1,0,2-0.9,2-2S17.5,16.8,16.4,16.8z"/>
			</g>
		</g>
	</g>
</g>
</svg>
